A03 Assignment - Caleb Coulson - CalebCoulson - Fundamental of Analytics
…
print(lego_sales)

## # A tibble: 620 x 14
##    first_name last_name    age phone_number set_id number theme  subtheme   year
##    <chr>      <chr>      <dbl> <chr>         <dbl> <chr>  <chr>  <chr>     <dbl>
##  1 Kimberly   Beckstead     24 216-555-2549  24701 76062  DC Co~ Mighty M~  2018
##  2 Neel       Garvin        35 819-555-3189  25626 70595  Ninja~ Rise of ~  2018
##  3 Neel       Garvin        35 819-555-3189  24665 21031  Archi~ <NA>       2018
##  4 Chelsea    Bouchard      41 <NA>          24695 31048  Creat~ <NA>       2018
##  5 Chelsea    Bouchard      41 <NA>          25626 70595  Ninja~ Rise of ~  2018
##  6 Chelsea    Bouchard      41 <NA>          24721 10831  Duplo  <NA>       2018
##  7 Bryanna    Welsh         19 <NA>          24797 75138  Star ~ Episode V  2018
##  8 Bryanna    Welsh         19 <NA>          24701 76062  DC Co~ Mighty M~  2018
##  9 Caleb      Garcia-Wi~    37 907-555-9236  24730 41115  Frien~ <NA>       2018
## 10 Caleb      Garcia-Wi~    37 907-555-9236  25611 21127  Minec~ Minifig-~  2018
## # ... with 610 more rows, and 5 more variables: name <chr>, pieces <dbl>,
## #   us_price <dbl>, image_url <chr>, quantity <dbl>

most common first names

lego_sales %>%
  count(first_name) %>%
  arrange(desc(n))

## # A tibble: 211 x 2
##    first_name     n
##    <chr>      <int>
##  1 Jackson       13
##  2 Jacob         11
##  3 Joseph        11
##  4 Michael       10
##  5 Audrey         8
##  6 Connor         8
##  7 Kaitlyn        8
##  8 Lucas          8
##  9 Amanda         7
## 10 Joshua         7
## # ... with 201 more rows

From this it is apparant that “Jackson” is the most common first name with a count of 13

most common theme

lego_sales %>%
  count(theme) %>%
  arrange(desc(n))

## # A tibble: 25 x 2
##    theme            n
##    <chr>        <int>
##  1 Star Wars       75
##  2 Nexo Knights    64
##  3 Gear            55
##  4 Mixels          55
##  5 City            45
##  6 Friends         42
##  7 Ninjago         38
##  8 Duplo           35
##  9 Bionicle        34
## 10 Creator         25
## # ... with 15 more rows
…
## # A tibble: 5 x 3
##   age_group        n prob_a
##   <chr>        <int>  <dbl>
## 1 18 and under    30 0.0484
## 2 19 - 25        129 0.208 
## 3 26 - 35        183 0.295 
## 4 36 - 50        216 0.348 
## 5 51 and over     62 0.1

## part b
updated_lego_sales %>%
  count(age_group, theme) %>%
 mutate(prob_b=(n/sum(n)))

## # A tibble: 101 x 4
##    age_group    theme                      n  prob_b
##    <chr>        <chr>                  <int>   <dbl>
##  1 18 and under Bionicle                   3 0.00484
##  2 18 and under City                       4 0.00645
##  3 18 and under Creator                    2 0.00323
##  4 18 and under DC Comics Super Heroes     1 0.00161
##  5 18 and under Dimensions                 2 0.00323
##  6 18 and under Disney Princess            1 0.00161
##  7 18 and under Duplo                      2 0.00323
##  8 18 and under Elves                      1 0.00161
##  9 18 and under Gear                       2 0.00323
## 10 18 and under Marvel Super Heroes        1 0.00161
## # ... with 91 more rows
…
from this it can be seen that the age group that has purchased the most lego sets is the 36-50 age group, and they purchaced 216 sets

part 7 (Which age group has spent the most money on legos? How much did they spend?)

updated_lego_sales %>%
  count(age_group,us_price) %>%
  mutate(total_cost = us_price*n) %>%
   group_by(age_group) %>%
   mutate(cost_sum= sum(total_cost))

## # A tibble: 94 x 5
## # Groups:   age_group [5]
##    age_group    us_price     n total_cost cost_sum
##    <chr>           <dbl> <int>      <dbl>    <dbl>
##  1 18 and under     3.99     2       7.98     642.
##  2 18 and under     4.99     4      20.0      642.
##  3 18 and under     5.99     1       5.99     642.
##  4 18 and under     9.99     6      59.9      642.
##  5 18 and under    13.0      1      13.0      642.
##  6 18 and under    15.0      3      45.0      642.
##  7 18 and under    20.0      5      99.       642.
##  8 18 and under    25.0      2      50.0      642.
##  9 18 and under    30.0      2      60.0      642.
## 10 18 and under    40.0      1      40.0      642.
## # ... with 84 more rows
…
