…
ggplot(golf2017UP, aes(x=AVG_Driving_DISTANCE, y=TOP10_percent)) +
  geom_point()

<img src="{{< blogdown/postref >}}index_files/figure-html/unnamed-chunk-4-1.png" width="672" />
## Adding Player column to match maning convention of 2017 stats

golf2020UP <- golf2020 %>%
  mutate(Player = `PLAYER NAME`)

Combining all data

golf2017UP %>%
  full_join(golf2020UP, by = 'Player')

## # A tibble: 360 x 143
## # Groups:   NUMBER_OF_TOP_Tens [10]
##    Player  EVENTS_PLAYED POINTS NUMBER_OF_WINS NUMBER_OF_TOP_T~ POINTS_BEHIND_L~
##    <chr>           <dbl>  <dbl>          <dbl>            <dbl>            <dbl>
##  1 Aaron ~            27   1498              1                4             4119
##  2 Abraha~            29    909              0                5             4708
##  3 Adam H~            24   1054              0                3             4563
##  4 Adam S~            20   1052              0                3             4565
##  5 Alex N~            17   1033              0                3             4584
##  6 Andrew~            26   1145              1                5             4472
##  7 Andrew~            27   1063              1                5             4554
##  8 Anirba~            24    566              0                4             5051
##  9 Austin~            28   1094              1                3             4523
## 10 Beau H~            27   1043              0                5             4574
## # ... with 350 more rows, and 137 more variables: ROUNDS_PLAYED <dbl>,
## #   SG_PUTTING_PER_ROUND <dbl>, TOTAL_SG:PUTTING <dbl>, MEASURED_ROUNDS <dbl>,
## #   AVG_Driving_DISTANCE <dbl>, UP_AND_DOWN_% <dbl>, PAR_OR_BETTER <dbl>,
## #   MISSED_GIR <dbl>, FAIRWAY_HIT_% <dbl>, FAIRWAYS_HIT <dbl>,
## #   POSSIBLE_FAIRWAYS <dbl>, GIR_RANK <dbl>, GOING_FOR_GREEN_IN_2% <dbl>,
## #   ATTEMPTS_GFG <dbl>, NON-ATTEMPTS_GFG <dbl>, RTP-GOING_FOR_THE_GREEN <dbl>,
## #   RTP-NOT_GOING_FOR_THE_GRN <dbl>, HOLE_OUTS <dbl>, SAND_SAVE% <dbl>,
## #   NUMBER_OF_SAVES <dbl>, NUMBER_OF_BUNKERS <dbl>, TOTAL_O/U_PAR <dbl>,
## #   Three_PUTT% <dbl>, TOTAL_3_PUTTS <dbl>, SG_PER_ROUND <dbl>, SG:OTT <dbl>,
…
Adding 2017 and 2020 PGA tour stats using inner join, to show who was on tour both years, and comparing their club head speeds to see who added most speed to driver.

golf2017UP %>%
  inner_join(golf2020UP, by = 'Player') %>%
mutate(speed_change = (TEE_AVG_CLUB_HEAD_SPEED-AVG_CLUB_HEAD_SPEED)) %>%
  select(Player,speed_change) %>% 
  arrange(desc(speed_change))

## Adding missing grouping variables: `NUMBER_OF_TOP_Tens`

## # A tibble: 91 x 3
## # Groups:   NUMBER_OF_TOP_Tens [9]
##    NUMBER_OF_TOP_Tens Player            speed_change
##                 <dbl> <chr>                    <dbl>
##  1                  9 Bryson DeChambeau         7.33
##  2                  3 Danny Lee                 3.48
##  3                  5 Beau Hossler              3.46
##  4                  6 Brian Gay                 3.45
##  5                  5 Luke List                 2.24
##  6                  3 Russell Knox              2.19
##  7                  5 Si Woo Kim                1.94
##  8                  7 Patrick Cantlay           1.18
##  9                  4 Matt Kuchar               1.01
## 10                  3 Patrick Rodgers           1   
## # ... with 81 more rows
…
comparing age of player to events played in 2017

golf2017 %>%
pivot_longer(
  cols = AGE,
  names_to = "AGE OF PLAYER",
  values_to = "years"
) %>%
  select(Player, 'AGE OF PLAYER', years, EVENTS_PLAYED) %>%
  drop_na(EVENTS_PLAYED) %>%
arrange(desc(years))

## # A tibble: 195 x 4
##    Player             `AGE OF PLAYER` years EVENTS_PLAYED
##    <chr>              <chr>           <dbl>         <dbl>
##  1 Retief Goosen      AGE                49            20
##  2 Jim Furyk          AGE                48            15
##  3 Phil Mickelson     AGE                48            22
##  4 Rod Pampling       AGE                48            20
##  5 Alex Cejka         AGE                47            24
##  6 Padraig Harrington AGE                47            16
##  7 Brian Gay          AGE                46            29
##  8 Stewart Cink       AGE                45            25
##  9 Tom Hoge           AGE                45            31
## 10 Cameron Percy      AGE                44            16
## # ... with 185 more rows
