Assignment 5: Caleb Coulson Data analysis - CalebCoulson - Fundamental of Analytics
…
from this plot it can be seen that the CO2 utput per cap is highest in Easten asia, north america, and westen asia. Now that we have the mean CO2 output, and mean GDP per cap for each region, It would be interesting to see the corrilation of these two values, that can be seen in he following graph

## `summarise()` has grouped output by 'Region'. You can override using the `.groups` argument.

## # A tibble: 229 x 3
## # Groups:   Region [22]
##    Region    mean_GDPpercap mean_CO2
##    <chr>              <dbl>    <dbl>
##  1 Caribbean         17684.     103.
##  2 Caribbean         17684.     103.
##  3 Caribbean         17684.     103.
##  4 Caribbean         17684.     103.
##  5 Caribbean         17684.     103.
##  6 Caribbean         17684.     103.
##  7 Caribbean         17684.     103.
##  8 Caribbean         17684.     103.
##  9 Caribbean         17684.     103.
## 10 Caribbean         17684.     103.
## # ... with 219 more rows
…
